{
	"wp": {
		"label": "WordPress (Front-End & Back-End)",
		"repository": "git@gitlab.com:intermobile/wp-boilerplate.git"
	},
	"wp_headless": {
		"label": "WordPress Headless (CMS & API)",
		"repository": "git@gitlab.com:intermobile/wp-headless-boilerplate.git"
	}
}
